84091
51089
39324
6621
17076
91903
62860
3077
81167
79885
95826
11661
11293
69331
61084
17634
2141
16529
8736
33045
41054
36262
77620
96460
57633
50723
76360
13645
35732
82947
38215
27654
90511
63325
46239
10933
47096
73799
7910
90802
36360
70738
84370
78757
21742
28056
84650
41577
87686
76571
27287
62699
73103
23273
71890
60588
82222
30738
16816
74962
45098
23984
43233
3724
82823
10173
70904
25530
59427
98508
67990
60760
74486
28252
93938
54468
25939
79601
50528
15716
39227
41049
58455
74400
65047
90374
81115
86316
24512
61250
52024
36663
8221
83591
49609
64860
34706
5077
58509
80574
28754
92170
88089
54688
14256
67353
33078
98993
10733
15471
10981
92063
54011
94537
69578
9625
17110
97817
55866
26906
8459
30357
88425
39214
70033
15169
92386
2515
48107
63432
3079
15964
50747
12879
83864
86825
45199
94687
28479
32888
36651
22876
6335
62307
35715
89003
68551
33416
67169
12403
56499
18583
3721
34661
18415
61767
6594
34190
90568
45139
38004
40961
94161
80782
47653
60369
36230
82551
23002
24991
57972
45485
96761
77707
32555
66920
52724
63804
39154
93530
4063
55645
66642
39391
63736
12169
56145
22909
17326
71714
84096
82362
72124
21845
29418
54584
55772
10253
99362
98910
63786
36232
30872
31597
20703
55310
47414
90392
99066
66111
14514
46956
91158
13685
58426
19489
94473
27040
47934
40792
59851
99570
27329
69654
28445
33235
30130
48674
38130
74888
35891
14563
82224
36056
34207
19766
11989
97915
6315
50639
77951
10904
96304
73710
35755
65025
664
51678
35842
13228
6917
42772
58921
15296
73647
44025
41746
74476
71603
23347
77071
4422
85781
52497
84915
19664
34182
95661
23318
39054
10240
63672
14411
11029
48324
58078
65436
56868
70328
5444
30234
61980
64017
86855
19805
78179
61594
51094
77562
90525
19467
27929
10705
21944
36903
17350
9258
72005
21957
83044
13621
45491
3525
26177
70220
96799
72770
45880
1064
72777
2217
73351
95750
55588
98423
34760
15034
42747
24332
8585
17648
75030
89021
1039
13852
44987
60117
32686
70939
65037
29031
75277
51156
2157
48645
86756
33155
71549
40481
297
40167
72316
72600
64580
11116
22961
77920
7497
36174
11799
78593
69989
44205
24337
58760
60446
85824
22794
28605
53529
39295
37040
36161
15579
92441
38939
79280
75699
26513
99109
65268
64141
35048
28575
8946
87365
14908
91501
14892
98966
70806
40717
29272
39260
27802
49088
1936
30246
8737
75100
23392
64572
10762
23798
27984
24945
69608
68717
35209
96456
92002
2331
16370
83080
53130
80960
65083
16649
84837
24319
49582
57976
52644
48521
7185
47186
74544
88270
90239
89332
69019
7270
40176
84906
73440
79809
28502
81542
36525
15583
48441
28663
41764
26747
50498
48522
45531
68314
91317
8186
33748
97121
4253
17457
47072
55090
20938
96745
27199
67018
9531
31604
37166
77242
64358
35780
23661
11614
82773
1324
68768
9350
366
82544
70080
53552
83468
8872
456
26880
19495
39308
38021
11827
78066
30297
74900
46283
66726
52787
18671
69346
70887
84888
89419
36859
88251
64768
99634
45963
399
30850
57564
68428
23312
5191
88691
40445
43715
64060
